<svg xmlns="http://www.w3.org/2000/svg" xmlns:xlink="http://www.w3.org/1999/xlink" width="28" height="28" viewBox="0 0 28 28">
  <defs>
    <clipPath id="clip-Parametros_Cajasan_74">
      <rect width="28" height="28"/>
    </clipPath>
  </defs>
  <g id="Parametros_Cajasan_74" data-name="Parametros Cajasan – 74" clip-path="url(#clip-Parametros_Cajasan_74)">
    <g id="Icon_Close_Gde" data-name="Icon Close Gde">
      <path id="Trazado_6324" data-name="Trazado 6324" d="M7118.1-2835.1a13.9,13.9,0,0,1-4.1-9.9,13.9,13.9,0,0,1,4.1-9.9,13.9,13.9,0,0,1,9.9-4.1,13.9,13.9,0,0,1,9.9,4.1,13.9,13.9,0,0,1,4.1,9.9,13.9,13.9,0,0,1-4.1,9.9,13.9,13.9,0,0,1-9.9,4.1A13.9,13.9,0,0,1,7118.1-2835.1Zm1.126-18.672a12.421,12.421,0,0,0,0,17.547,12.326,12.326,0,0,0,8.772,3.635,12.326,12.326,0,0,0,8.773-3.635,12.421,12.421,0,0,0,0-17.547,12.326,12.326,0,0,0-8.773-3.635A12.326,12.326,0,0,0,7119.227-2853.773Zm13.811,14.943-5.044-5.044-5.043,5.044a.774.774,0,0,1-.56.235.8.8,0,0,1-.559-.235.792.792,0,0,1,0-1.126l5.043-5.043-5.043-5.043a.792.792,0,0,1,0-1.126.792.792,0,0,1,1.125,0l5.043,5.044,5.045-5.044a.792.792,0,0,1,1.125,0,.793.793,0,0,1,0,1.126l-5.043,5.043,5.032,5.043a.793.793,0,0,1,0,1.126.765.765,0,0,1-.56.235A.805.805,0,0,1,7133.038-2838.831Z" transform="translate(-7114 2859)" fill="#a7a9ac"/>
    </g>
  </g>
</svg>
