<svg xmlns="http://www.w3.org/2000/svg" xmlns:xlink="http://www.w3.org/1999/xlink" width="105.83" height="106.824" viewBox="0 0 105.83 106.824">
  <defs>
    <filter id="Rectángulo_14" x="0" y="41.657" width="55.786" height="65.167" filterUnits="userSpaceOnUse">
      <feOffset dy="3" input="SourceAlpha"/>
      <feGaussianBlur stdDeviation="3" result="blur"/>
      <feFlood flood-opacity="0.161"/>
      <feComposite operator="in" in2="blur"/>
      <feComposite in="SourceGraphic"/>
    </filter>
    <filter id="Rectángulo_3359-6" x="47.928" y="0" width="57.901" height="67.906" filterUnits="userSpaceOnUse">
      <feOffset dy="3" input="SourceAlpha"/>
      <feGaussianBlur stdDeviation="3" result="blur-2"/>
      <feFlood flood-opacity="0.161"/>
      <feComposite operator="in" in2="blur-2"/>
      <feComposite in="SourceGraphic"/>
    </filter>
  </defs>
  <g id="Grupo_8217" data-name="Grupo 8217" transform="translate(-831.648 -1176.322)">
    <path id="Trazado_10476" data-name="Trazado 10476" d="M884.79,1192.9a36,36,0,1,1-36,36,36,36,0,0,1,36-36Z" transform="translate(-0.22)" fill="#f0dea3"/>
    <g id="Grupo_38" data-name="Grupo 38" transform="translate(-0.22)">
      <g id="Grupo_37" data-name="Grupo 37">
        <g id="Grupo_36" data-name="Grupo 36">
          <g transform="matrix(1, 0, 0, 1, 831.87, 1176.32)" filter="url(#Rectángulo_14)">
            <rect id="Rectángulo_14-2" data-name="Rectángulo 14" width="47.002" height="37.579" rx="3.015" transform="translate(9 94.66) rotate(-89.75)" fill="#fff"/>
          </g>
          <path id="Rectángulo_3360" data-name="Rectángulo 3360" d="M847.758,1251.279l24.56.176a1.519,1.519,0,0,1,1.508,1.53h0a1.519,1.519,0,0,1-1.53,1.508l-24.56-.176a1.519,1.519,0,0,1-1.508-1.53h0A1.519,1.519,0,0,1,847.758,1251.279Z" fill="#d1d5e9"/>
          <path id="Rectángulo_3361" data-name="Rectángulo 3361" d="M847.7,1259.44l10.283.074a1.519,1.519,0,0,1,1.508,1.53h0a1.52,1.52,0,0,1-1.53,1.508l-10.283-.074a1.52,1.52,0,0,1-1.508-1.53h0A1.519,1.519,0,0,1,847.7,1259.44Z" fill="#d1d5e9"/>
          <rect id="Rectángulo_3362" data-name="Rectángulo 3362" width="14.885" height="22.479" rx="3.75" transform="matrix(0.007, -1, 1, 0.007, 848.089, 1244.411)" fill="#00babe"/>
          <path id="Trazado_10453" data-name="Trazado 10453" d="M850.227,1242.756l3.912-4.019,4.255,2.25,4.835-6.492,5.376,8.393Z" fill="#fff"/>
        </g>
      </g>
    </g>
    <g id="Grupo_8404" data-name="Grupo 8404" transform="translate(-0.22)">
      <g id="Grupo_41" data-name="Grupo 41">
        <g id="Grupo_40" data-name="Grupo 40">
          <g id="Grupo_39" data-name="Grupo 39">
            <g transform="matrix(1, 0, 0, 1, 831.87, 1176.32)" filter="url(#Rectángulo_3359-6)">
              <rect id="Rectángulo_3359-6-2" data-name="Rectángulo 3359-6" width="39.901" height="49.906" rx="2.204" transform="translate(56.93 6)" fill="#fff"/>
            </g>
          </g>
          <path id="Rectángulo_3360-3" data-name="Rectángulo 3360-3" d="M895.879,1211.963h26.209a1.62,1.62,0,0,1,1.621,1.62h0a1.621,1.621,0,0,1-1.621,1.621H895.879a1.621,1.621,0,0,1-1.621-1.621h0A1.62,1.62,0,0,1,895.879,1211.963Z" fill="#d1d5e9"/>
          <path id="Rectángulo_3361-3" data-name="Rectángulo 3361-3" d="M895.879,1220.672h10.973a1.62,1.62,0,0,1,1.62,1.62h0a1.62,1.62,0,0,1-1.62,1.621H895.879a1.621,1.621,0,0,1-1.621-1.621h0A1.62,1.62,0,0,1,895.879,1220.672Z" fill="#d1d5e9"/>
          <rect id="Rectángulo_3362-3" data-name="Rectángulo 3362-3" width="23.987" height="15.883" rx="2.755" transform="translate(896.179 1188.748)" fill="#7139cb"/>
          <circle id="Elipse_30-2" data-name="Elipse 30-2" cx="2.588" cy="2.588" r="2.588" transform="translate(905.463 1190.873)" fill="#fff"/>
          <g id="Grupo_312-2" data-name="Grupo 312-2">
            <path id="Trazado_71-2" data-name="Trazado 71-2" d="M913.1,1200.462a5.6,5.6,0,0,0-10.1,0,7.076,7.076,0,0,0,10.008.095h0C913.041,1200.526,913.071,1200.492,913.1,1200.462Z" fill="#fff"/>
          </g>
        </g>
      </g>
    </g>
    <path id="Trazado_49" data-name="Trazado 49" d="M878.641,1254.493h27.487c1.577,0,2.855-1.59,2.855-3.552v-18.713" transform="translate(-0.22)" fill="none" stroke="#7139cb" stroke-width="0.897" stroke-dasharray="3.586"/>
  </g>
</svg>
