<svg xmlns="http://www.w3.org/2000/svg" width="28.229" height="28.229" viewBox="0 0 28.229 28.229">
  <g id="Grupo_8236" data-name="Grupo 8236" transform="translate(-3680.373 -3022.744)">
    <g id="Grupo_8227" data-name="Grupo 8227" transform="translate(2630.78 -1171)">
      <g id="Grupo_20" data-name="Grupo 20">
        <g id="Grupo_19" data-name="Grupo 19">
          <circle id="Elipse_7" data-name="Elipse 7" cx="14.114" cy="14.114" r="14.114" transform="translate(1049.593 4193.744)" fill="#7686a2"/>
        </g>
      </g>
    </g>
    <path id="Trazado_10445" data-name="Trazado 10445" d="M1071.69,4203l-1.375,1.674s.419,5.023-3.109,7.475-6.817,3.408-11.481,1.136a18.69,18.69,0,0,0,4.544-1.316c-1.315-.777-2.691-1.495-3.229-2.631a3.286,3.286,0,0,0,1.615-.119,5.555,5.555,0,0,1-2.93-3.528,10.525,10.525,0,0,0,1.495.418c-.6-1.016-1.555-2.511-.539-4.485a10.652,10.652,0,0,0,6.877,3.708c.12-1.077,0-4.126,3.528-4.186a3.477,3.477,0,0,1,2.392.957l2.212-.359-1.315,1.495Z" transform="translate(2630.78 -1171)" fill="#38404e"/>
  </g>
</svg>
