<svg xmlns="http://www.w3.org/2000/svg" xmlns:xlink="http://www.w3.org/1999/xlink" width="1177.041" height="735.654" viewBox="0 0 1177.041 735.654">
  <defs>
    <linearGradient id="linear-gradient" y1="0.287" x2="0.618" y2="0.5" gradientUnits="objectBoundingBox">
      <stop offset="0" stop-color="#1f4652"/>
      <stop offset="1" stop-color="#397284"/>
    </linearGradient>
  </defs>
  <g id="Grupo_8400" data-name="Grupo 8400" transform="translate(-67.818 -1044)">
    <path id="Rectángulo_2510" data-name="Rectángulo 2510" d="M0,0H1177.04V735.65H0Z" transform="translate(67.818 1044)" fill="#1a2e3a"/>
    <g id="Grupo_8399" data-name="Grupo 8399">
      <g id="Grupo_5922" data-name="Grupo 5922" transform="translate(69.658 1044)">
        <path id="Intersección_11" data-name="Intersección 11" d="M-1158.635,769.683-1300,628.318V423.105a74.407,74.407,0,0,1,19.512,14.053l332.526,332.525Z" transform="translate(1300 -34.032)" fill="url(#linear-gradient)"/>
        <path id="Intersección_10" data-name="Intersección 10" d="M-854.847,729.894-1300,284.743V244.429l465.306,465.31a14.253,14.253,0,0,1,.175,20.156,14.253,14.253,0,0,1-20.157.175l-.174-.174Z" transform="translate(1300 -19.659)" fill="url(#linear-gradient)"/>
        <path id="Intersección_9" data-name="Intersección 9" d="M-835.536,559.2-1300,94.743V54.429L-815.381,539.05a14.253,14.253,0,0,1,.175,20.156,14.253,14.253,0,0,1-20.157.175l-.174-.174Z" transform="translate(1300 -4.376)" fill="url(#linear-gradient)"/>
        <path id="Intersección_8" data-name="Intersección 8" d="M-1142.961,324.646-1300,167.608V0h43.065l219.31,219.31a74.485,74.485,0,0,1-.23,105.337A74.485,74.485,0,0,1-1142.961,324.646Z" transform="translate(1300 0.002)" fill="url(#linear-gradient)"/>
        <path id="Intersección_7" data-name="Intersección 7" d="M-848.295,785.018a136.572,136.572,0,0,1,97.4-166.785,136.572,136.572,0,0,1,131.258,35.514l131.271,131.27Z" transform="translate(1262.19 -49.367)" fill="url(#linear-gradient)"/>
        <path id="Intersección_6" data-name="Intersección 6" d="M-422.537,736.517l-598.691-598.692a74.484,74.484,0,0,1,.243-105.337,74.484,74.484,0,0,1,105.094,0l650.229,650.229a74.268,74.268,0,0,1,21.807,53.8Z" transform="translate(1277.482 -0.866)" fill="url(#linear-gradient)"/>
        <path id="Intersección_5" data-name="Intersección 5" d="M-135.9,748.608l-563.12-563.119a14.252,14.252,0,0,1-.109-20.157,14.252,14.252,0,0,1,20.157-.109l.109.109L-95.583,748.611Z" transform="translate(1250.16 -12.957)" fill="url(#linear-gradient)"/>
        <path id="Intersección_4" data-name="Intersección 4" d="M-314.009,367.5a14.253,14.253,0,0,1,.108-20.157,14.254,14.254,0,0,1,20.049,0l249.871,249.87v40.314Z" transform="translate(1219.182 -27.606)" fill="url(#linear-gradient)"/>
        <path id="Intersección_3" data-name="Intersección 3" d="M-391.692,377.122-673.241,95.576A74.505,74.505,0,0,1-681.47,0h123.325l271.793,271.79a74.485,74.485,0,0,1-.234,105.337A74.485,74.485,0,0,1-391.692,377.122Z" transform="translate(1249.501 0.002)" fill="url(#linear-gradient)"/>
        <path id="Intersección_1" data-name="Intersección 1" d="M-164.27,0H-31.6V132.663Z" transform="translate(1206.806 0.002)" fill="url(#linear-gradient)"/>
        <path id="Intersección_2" data-name="Intersección 2" d="M-392.27,0h40.314L-49.944,302.01v40.315Z" transform="translate(1225.146 0.002)" fill="url(#linear-gradient)"/>
      </g>
    </g>
  </g>
</svg>
