<svg xmlns="http://www.w3.org/2000/svg" width="38" height="38" viewBox="0 0 38 38">
  <g id="Grupo_7985" data-name="Grupo 7985" transform="translate(-1659 219)">
    <path id="Trazado_10424" data-name="Trazado 10424" d="M19,0A19,19,0,1,1,0,19,19,19,0,0,1,19,0Z" transform="translate(1659 -219)" fill="#d9f8f9"/>
    <path id="Trazado_10413" data-name="Trazado 10413" d="M650.511,458.218H637.342l5.5-6.105a1.1,1.1,0,0,0-1.636-1.471l-7.156,7.94a1.069,1.069,0,0,0-.106.175,1.055,1.055,0,0,0-.095.154,1.1,1.1,0,0,0,0,.815.99.99,0,0,0,.095.153,1.023,1.023,0,0,0,.106.175l7.156,7.941a1.1,1.1,0,0,0,1.636-1.472l-5.5-6.105h13.169a1.1,1.1,0,0,0,0-2.2Z" transform="translate(1035.061 -658.834)" fill="#a4bed2"/>
  </g>
</svg>
